module gitlab.com/istio-hackathon/api

require (
	github.com/go-openapi/errors v0.18.0
	github.com/go-openapi/loads v0.18.0
	github.com/go-openapi/runtime v0.18.0
	github.com/go-openapi/spec v0.18.0
	github.com/go-openapi/strfmt v0.18.0
	github.com/go-openapi/swag v0.18.0
	github.com/go-openapi/validate v0.18.0
	github.com/jessevdk/go-flags v1.4.0
	golang.org/x/net v0.0.0-20190206173232-65e2d4e15006
)
